417301 689977 509
394625 792629 509
748600 642820 504
355847 507795 449
560279 656746 509
613299 857407 525
439745 320467 449
951123 28248 525
7917 176565 383
103351 148692 375
707675 122615 509
421056 447614 418
971431 189634 525
138752 378529 443
757127 151270 509
550104 96469 470
91347 105607 341
193107 129150 383
438913 641174 509
966126 819396 525
430249 449756 400
948767 132328 525
720958 280802 509
585320 718724 509
532465 945711 525
803558 705036 468
728252 675016 504
587972 540899 452
117126 507439 449
504038 376581 449
43111 547038 470
678942 865664 525
220988 863128 525
784182 992354 525
207159 527400 470
636784 508172 509
857427 783617 525
138412 829362 509
616447 627523 509
405406 794229 509
508024 138038 449
107868 508701 449
251092 745587 509
232174 618778 470
13121 249327 443
708828 740112 424
930865 802340 525
606383 447826 470
677786 272249 509
882186 183794 525
38127 354515 443
1971 673926 509
659568 566609 509
92899 964620 525
899505 783490 525
678412 985411 525
954458 288295 525
458296 623908 470
267741 406878 441
43678 659504 509
547467 670809 509
34165 543916 470
595100 110670 470
333179 939480 525
544216 719951 509
137527 130212 344
39746 349612 443
608588 906026 525
349954 294296 441
834988 287062 509
396500 613463 470
330461 502963 449
212407 794145 509
975602 971021 383
393381 706786 509
8550 627477 509
694861 931576 525
397115 857851 525
45336 439936 449
683723 445028 509
895888 304280 525
184530 407948 443
6565 578900 470
245394 339073 407
482127 745817 509
109886 865417 525
112852 151637 375
838369 155787 525
850512 674961 525
632144 975963 525
555299 458590 470
863014 653914 525
986370 916783 507
86112 458745 449
376884 385007 379
322654 319913 371
833779 718132 468
939298 517360 525
233229 862741 525
522104 958561 525
244610 930170 525
245596 925094 525
609005 579186 434
371247 719160 509
822639 580614 509
674727 469628 509
931364 280996 525
797553 467505 509
229155 308346 443
746318 792318 468
271817 270244 407
21456 663786 509
766454 383049 509
147553 907233 525
577952 940690 525
698493 156547 509
305636 282507 389
263273 935099 525
626408 451798 509
182104 552894 470
875110 50258 525
297456 837298 509
138508 888170 525
411008 75084 449
476203 906225 525
614968 185088 470
749955 502048 509
175062 63664 383
942296 832998 525
182496 249197 443
776001 886536 525
763495 537306 509
907875 110419 525
237572 944945 525
963492 177215 525
249444 469504 449
203926 21125 383
564590 418053 470
671198 629781 442
914683 692288 525
246049 199714 443
6724 306293 443
169832 171389 334
568452 587100 434
231731 348170 441
92653 962139 525
3164 773339 509
764307 973002 525
213159 290226 443
907000 171570 525
601642 742774 509
168876 852372 525
361995 587311 470
583388 154188 470
589915 281039 470
586442 924224 525
992502 188733 525
49028 879798 525
479678 906353 525
393257 25343 443
159455 838763 525
899732 986614 507
689233 588467 509
385488 909353 525
897209 213269 525
534270 836248 509
81176 692945 509
294704 23907 443
416358 8563 449
926965 490628 525
459630 82733 449
474815 196133 449
824378 455113 509
667450 646015 442
718396 974679 525
514361 386505 470
186663 978772 525
146468 809268 509
581476 398642 470
778063 921288 525
994362 982193 427
16649 251505 443
127326 356868 443
131540 863713 525
355417 969072 525
307143 524337 470
538279 31273 470
353098 434052 449
475218 483888 413
821043 573814 509
766537 636294 504
986501 638724 525
243271 589780 470
694481 737241 504
58119 764969 509
638624 518617 509
992299 857242 507
246312 158031 443
526204 325895 470
975898 676752 525
